%YAML 1.1
%TAG !u! tag:unity3d.com,2011:
--- !u!114 &11400000
MonoBehaviour:
  m_ObjectHideFlags: 0
  m_PrefabParentObject: {fileID: 0}
  m_PrefabInternal: {fileID: 0}
  m_GameObject: {fileID: 0}
  m_Enabled: 1
  m_EditorHideFlags: 0
  m_Script: {fileID: 11500000, guid: 2523c237af79559439549d66651feb3a, type: 3}
  m_Name: AddOneCharge
  m_EditorClassIdentifier: 
  triggerTarget: 0
  stats:
    HP: 0
    maxHP: 0
    attackRange: 0
    damageRange:
      min: 0
      max: 0
    accuracy: 0
    dodge: 0
    critChance: 0
    critMod: 0
    defence: 0
    actionPoints: 0
    moveSpeed: 0
    visionRange: 0
  essenseMultiplier: 0
  maxEssense: 0
  restoreCharges: 1
  restoreAllAbilities: 1
  restoredAbilities: 
  refreshCooldowns: 0
  refreshAmount: 0
  targetCaster: 1
