%YAML 1.1
%TAG !u! tag:unity3d.com,2011:
--- !u!114 &11400000
MonoBehaviour:
  m_ObjectHideFlags: 0
  m_PrefabParentObject: {fileID: 0}
  m_PrefabInternal: {fileID: 0}
  m_GameObject: {fileID: 0}
  m_Enabled: 1
  m_EditorHideFlags: 0
  m_Script: {fileID: 11500000, guid: fdfaba2ce3f2c51438c2ef57f904b3e3, type: 3}
  m_Name: Snipe
  m_EditorClassIdentifier: 
  damageMod: 0
  damage: 1.8
  abilityType: 1
  accuracy: 10
  critChance: 0
  critMod: 1
  hitEffects: []
  makeTargetCaster: 0
  hasCharges: 0
  charges: 0
  maxCharges: 0
  statusEffects: []
  apCost: 9
  coolDown: 0
  coolDownCounter: 0
  targets: 1
  range:
    min: 3
    max: 20
  requireLOS: 1
  areaOfEffect: 0
  clickLayer:
    serializedVersion: 2
    m_Bits: 2048
  aoeSize: 0
  bounces: 0
  bounceDelay: 0.3
  bouncing: 0
  canReHit: 0
  bounceRange: 0
  projectilePrefab: {fileID: 1931586494333682, guid: 0f51f2fbfdcc3af40a4992a38d212b37,
    type: 2}
  projectileSpeed: 25
  projectileCount: 0
  shakeOnHit: 0
  shakeAmount: 0.25
  shakeDuration: 0.2
  abilityColor: 4
  particles: {fileID: 198923012431784886, guid: 037a979d10d6076468820f6a40e04445,
    type: 2}
  particlePosition: {x: 0, y: 1, z: 0}
  icon: {fileID: 21300000, guid: 9b505a645deb1ba49b5a0327571c5c8d, type: 3}
  castSound: {fileID: 8300000, guid: 9c3e61ef3a7b3804aa74a71e2438cf36, type: 3}
  hitSound: {fileID: 8300000, guid: 4345e1194f3202b4f9878e836ad3521b, type: 3}
  description: A high damage, high cost, high range ability
  attackOrigin: {x: 0, y: 0, z: 0}
