%YAML 1.1
%TAG !u! tag:unity3d.com,2011:
--- !u!114 &11400000
MonoBehaviour:
  m_ObjectHideFlags: 0
  m_PrefabParentObject: {fileID: 0}
  m_PrefabInternal: {fileID: 0}
  m_GameObject: {fileID: 0}
  m_Enabled: 1
  m_EditorHideFlags: 0
  m_Script: {fileID: 11500000, guid: fdfaba2ce3f2c51438c2ef57f904b3e3, type: 3}
  m_Name: Chain Harvest
  m_EditorClassIdentifier: 
  damageMod: 0
  damage: 0.8
  abilityType: 0
  accuracy: 10
  critChance: 0
  critMod: 1
  hitEffects: []
  makeTargetCaster: 0
  hasCharges: 0
  charges: 0
  maxCharges: 0
  statusEffects:
  - {fileID: 11400000, guid: 6b128216d4978ac4eafc0d59c566a468, type: 2}
  apCost: 5
  coolDown: 5
  coolDownCounter: 0
  targets: 1
  range:
    min: 0
    max: 10
  requireLOS: 1
  areaOfEffect: 2
  clickLayer:
    serializedVersion: 2
    m_Bits: 2048
  aoeSize: 0
  bounces: 3
  bounceDelay: 0.3
  bouncing: 0
  canReHit: 0
  bounceRange: 10
  projectilePrefab: {fileID: 0}
  projectileSpeed: 10
  projectileCount: 0
  shakeOnHit: 0
  shakeAmount: 0.25
  shakeDuration: 0.2
  abilityColor: 0
  particles: {fileID: 0}
  particlePosition: {x: 0, y: 1, z: 0}
  icon: {fileID: 21300000, guid: ddbd9ded9cc877246ba3bad0e7a52ba1, type: 3}
  castSound: {fileID: 0}
  hitSound: {fileID: 0}
  description: Harvest essense from enemies
  attackOrigin: {x: 0, y: 0, z: 0}
