%YAML 1.1
%TAG !u! tag:unity3d.com,2011:
--- !u!114 &11400000
MonoBehaviour:
  m_ObjectHideFlags: 0
  m_PrefabParentObject: {fileID: 0}
  m_PrefabInternal: {fileID: 0}
  m_GameObject: {fileID: 0}
  m_Enabled: 1
  m_EditorHideFlags: 0
  m_Script: {fileID: 11500000, guid: 644ac2ac753292f4c8508867e858acc5, type: 3}
  m_Name: Naath SkillTree
  m_EditorClassIdentifier: 
  sets:
  - {fileID: 11400000, guid: ec390299f2c2fbe40ac89a67b5b83081, type: 2}
  - {fileID: 11400000, guid: 252f7c17d501bfc4d95d4a5b07afe790, type: 2}
  - {fileID: 11400000, guid: 2104079c6f323574184b8b0887f9e72c, type: 2}
  - {fileID: 11400000, guid: 87b5050079238994db791827a783977f, type: 2}
  - {fileID: 11400000, guid: f96fd98a34b1c5b4cbde0cc582fb1cf7, type: 2}
  - {fileID: 11400000, guid: 997276b91ba0ff444bb103ae74dae354, type: 2}
  - {fileID: 11400000, guid: aa109fe488269a94092689a4df811f52, type: 2}
  - {fileID: 11400000, guid: c6759c26e4c7b0e479b88f7f41f0a14f, type: 2}
  - {fileID: 11400000, guid: ec20d09ae415c1b4e84b735d9b333587, type: 2}
  - {fileID: 11400000, guid: e1fd78cf0003bb440a5a27cabbc5c9cf, type: 2}
  - {fileID: 11400000, guid: 805ca82133e394a4b933199207953731, type: 2}
  - {fileID: 11400000, guid: 257ec51eb82f1094c9776254c15d0930, type: 2}
  - {fileID: 11400000, guid: 48858726797b63f4384d1cc2a20b07c1, type: 2}
  - {fileID: 11400000, guid: 463d47b0cb434504090ff13ab02fb996, type: 2}
  setsLearnt:
  - {fileID: 11400000, guid: c13403e3ee8902445a41d1b23d874259, type: 2}
  - {fileID: 11400000, guid: 0040c69f59fe93d44bf04a1d92b52752, type: 2}
  setsBlocked: []
