%YAML 1.1
%TAG !u! tag:unity3d.com,2011:
--- !u!114 &11400000
MonoBehaviour:
  m_ObjectHideFlags: 0
  m_PrefabParentObject: {fileID: 0}
  m_PrefabInternal: {fileID: 0}
  m_GameObject: {fileID: 0}
  m_Enabled: 1
  m_EditorHideFlags: 0
  m_Script: {fileID: 11500000, guid: 6896b51bb0a9fba419124f5364a20b77, type: 3}
  m_Name: Regeneration
  m_EditorClassIdentifier: 
  effectMod: 0
  stats:
    HP: 0
    maxHP: 0
    attackRange: 0
    damageRange:
      min: 0
      max: 0
    accuracy: 0
    dodge: 0
    critChance: 0
    critMod: 0
    defence: 0
    actionPoints: 0
    moveSpeed: 0
    visionRange: 0
  duration: 3
  damageMod: 1
  damage: -20
  onApplyEffects: []
  onDeathEffects: []
  onRemoveEffects: []
  user: {fileID: 0}
  target: {fileID: 0}
  ability: {fileID: 0}
  icon: {fileID: 21300000, guid: 4fc82dcf99c77e543b20d16ed3b5a93d, type: 3}
  particle: {fileID: 198664028177931062, guid: 8f12ffd345a3cad4fb1712c30401dbe6, type: 2}
  particlePosition: {x: 0, y: 1, z: 0}
  description: Naath regains 20 hp each turn
