%YAML 1.1
%TAG !u! tag:unity3d.com,2011:
--- !u!114 &11400000
MonoBehaviour:
  m_ObjectHideFlags: 0
  m_PrefabParentObject: {fileID: 0}
  m_PrefabInternal: {fileID: 0}
  m_GameObject: {fileID: 0}
  m_Enabled: 1
  m_EditorHideFlags: 0
  m_Script: {fileID: 11500000, guid: f8726322b59cd9f469a7572d5d98d67a, type: 3}
  m_Name: Blunderbuss Skill
  m_EditorClassIdentifier: 
  setName: 
  abilities:
  - {fileID: 11400000, guid: 534d4045b882a6148b78eefdb080ef07, type: 2}
  requiredLevel: 5
  cost: 1
  hasStatsMod: 0
  statsMod:
    HP: 0
    maxHP: 0
    attackRange: 0
    damageRange:
      min: 0
      max: 0
    accuracy: 0
    dodge: 0
    critChance: 0
    critMod: 0
    defence: 0
    actionPoints: 0
    moveSpeed: 0
    visionRange: 0
  blocks: []
  classChange: 
  setImage: {fileID: 0}
  setDescription: Selena brings a new blackpowder toy to the fight, dealing massive
    damage once per level.
  extraExitCost: 0
  replacedAbilities: []
