%YAML 1.1
%TAG !u! tag:unity3d.com,2011:
--- !u!114 &11400000
MonoBehaviour:
  m_ObjectHideFlags: 0
  m_PrefabParentObject: {fileID: 0}
  m_PrefabInternal: {fileID: 0}
  m_GameObject: {fileID: 0}
  m_Enabled: 1
  m_EditorHideFlags: 0
  m_Script: {fileID: 11500000, guid: fdfaba2ce3f2c51438c2ef57f904b3e3, type: 3}
  m_Name: BanditKnifeThrow
  m_EditorClassIdentifier: 
  damageMod: 0
  damage: 0.5
  abilityType: 1
  accuracy: 10
  critChance: 0
  critMod: 1
  hitEffects: []
  makeTargetCaster: 0
  hasCharges: 0
  charges: 0
  maxCharges: 0
  statusEffects: []
  apCost: 4
  coolDown: 0
  coolDownCounter: 0
  targets: 1
  range:
    min: 0
    max: 7
  requireLOS: 1
  areaOfEffect: 0
  clickLayer:
    serializedVersion: 2
    m_Bits: 2048
  aoeSize: 0
  bounces: 0
  bounceDelay: 0.3
  bouncing: 0
  canReHit: 0
  bounceRange: 0
  projectilePrefab: {fileID: 1931586494333682, guid: 0f51f2fbfdcc3af40a4992a38d212b37,
    type: 2}
  projectileSpeed: 5
  projectileCount: 0
  shakeOnHit: 0
  shakeAmount: 0.25
  shakeDuration: 0.2
  abilityColor: 0
  particles: {fileID: 198092040015870300, guid: c5292426212c40648872607d810c4ee9,
    type: 2}
  particlePosition: {x: 0, y: 1, z: 0}
  icon: {fileID: 21300000, guid: 1656660b164ac6647817d13f2b11898f, type: 3}
  castSound: {fileID: 0}
  hitSound: {fileID: 8300000, guid: 3f5208fe7f2d42b49b54c624de12116c, type: 3}
  description: 
  attackOrigin: {x: 0, y: 0, z: 0}
