%YAML 1.1
%TAG !u! tag:unity3d.com,2011:
--- !u!114 &11400000
MonoBehaviour:
  m_ObjectHideFlags: 0
  m_PrefabParentObject: {fileID: 0}
  m_PrefabInternal: {fileID: 0}
  m_GameObject: {fileID: 0}
  m_Enabled: 1
  m_EditorHideFlags: 0
  m_Script: {fileID: 11500000, guid: 6896b51bb0a9fba419124f5364a20b77, type: 3}
  m_Name: Poison_ModerateParalizing
  m_EditorClassIdentifier: 
  effectMod: 1
  stats:
    HP: 0
    maxHP: 0
    attackRange: 0
    damageRange:
      min: 0
      max: 0
    accuracy: 0
    dodge: 0
    critChance: 0
    critMod: 0
    defence: 0
    actionPoints: 0
    moveSpeed: 0
    visionRange: 0
  duration: 2
  damageMod: 0
  damage: 0
  onApplyEffects: []
  onDeathEffects: []
  onRemoveEffects: []
  user: {fileID: 0}
  target: {fileID: 0}
  ability: {fileID: 0}
  icon: {fileID: 21300000, guid: 0d28eaef9f21f4048bec27a1342abe29, type: 3}
  particle: {fileID: 198147163235246392, guid: 5ee17ee6366a0934b930adfe2131c7d9, type: 2}
  particlePosition: {x: 0, y: 1, z: 0}
  scrollingText: Slowed
  description: 'Paralyzing Poison

    -2 Action Points'
