%YAML 1.1
%TAG !u! tag:unity3d.com,2011:
--- !u!114 &11400000
MonoBehaviour:
  m_ObjectHideFlags: 0
  m_PrefabParentObject: {fileID: 0}
  m_PrefabInternal: {fileID: 0}
  m_GameObject: {fileID: 0}
  m_Enabled: 1
  m_EditorHideFlags: 0
  m_Script: {fileID: 11500000, guid: c3bd99c47153e9e4e87122ad0ddd3010, type: 3}
  m_Name: Surivive for 12 Turns
  m_EditorClassIdentifier: 
  completed: 0
  objectiveName: Protect the Device
  objectiveDescription: Hold off the crazies till the vaccuum is done
  turns: 12
