%YAML 1.1
%TAG !u! tag:unity3d.com,2011:
--- !u!114 &11400000
MonoBehaviour:
  m_ObjectHideFlags: 0
  m_PrefabParentObject: {fileID: 0}
  m_PrefabInternal: {fileID: 0}
  m_GameObject: {fileID: 0}
  m_Enabled: 1
  m_EditorHideFlags: 0
  m_Script: {fileID: 11500000, guid: fdfaba2ce3f2c51438c2ef57f904b3e3, type: 3}
  m_Name: AheadOfHisTime
  m_EditorClassIdentifier: 
  damageMod: 0
  damage: 0
  abilityType: 0
  accuracy: 500
  critChance: 0
  critMod: 1
  hitEffects: []
  makeTargetCaster: 0
  hasCharges: 1
  charges: 2
  maxCharges: 0
  statusEffects: []
  apCost: -4
  coolDown: 2
  coolDownCounter: 0
  targets: 2
  range:
    min: 0
    max: 0
  requireLOS: 0
  areaOfEffect: 0
  clickLayer:
    serializedVersion: 2
    m_Bits: 2048
  aoeSize: 0
  bounces: 0
  bounceDelay: 0.3
  bouncing: 0
  canReHit: 0
  bounceRange: 0
  projectilePrefab: {fileID: 0}
  projectileSpeed: 0
  projectileCount: 0
  shakeOnHit: 0
  shakeAmount: 0.25
  shakeDuration: 0.2
  abilityColor: 0
  particles: {fileID: 198237985302627410, guid: 4fbff7d32cd13f744932ee5839ad73b8,
    type: 2}
  particlePosition: {x: 0, y: 1, z: 0}
  icon: {fileID: 21300000, guid: 9af7cf0c01716c84e8a125ccb82c0479, type: 3}
  castSound: {fileID: 0}
  hitSound: {fileID: 0}
  description: "Emir bends time to act swiftly. \n+4 AP"
  attackOrigin: {x: 0, y: 0, z: 0}
