%YAML 1.1
%TAG !u! tag:unity3d.com,2011:
--- !u!114 &11400000
MonoBehaviour:
  m_ObjectHideFlags: 0
  m_PrefabParentObject: {fileID: 0}
  m_PrefabInternal: {fileID: 0}
  m_GameObject: {fileID: 0}
  m_Enabled: 1
  m_EditorHideFlags: 0
  m_Script: {fileID: 11500000, guid: 7e785065aa6639a41ab5d7ca8f0cca6f, type: 3}
  m_Name: S3
  m_EditorClassIdentifier: 
  setName: Interupt The Ritual
  objectives:
  - {fileID: 11400000, guid: 35b2974389ed1164bb196d9551412403, type: 2}
  optionals: []
  optionalArePersistant: 0
  rewards: []
  optionalRewards: []
  immediateRewards: 0
  immediateoptionalRewards: 0
