%YAML 1.1
%TAG !u! tag:unity3d.com,2011:
--- !u!114 &11400000
MonoBehaviour:
  m_ObjectHideFlags: 0
  m_PrefabParentObject: {fileID: 0}
  m_PrefabInternal: {fileID: 0}
  m_GameObject: {fileID: 0}
  m_Enabled: 1
  m_EditorHideFlags: 0
  m_Script: {fileID: 11500000, guid: f8726322b59cd9f469a7572d5d98d67a, type: 3}
  m_Name: IncreaseDodge
  m_EditorClassIdentifier: 
  setName: Increase Dodge
  abilities: []
  requiredLevel: 4
  cost: 1
  hasStatsMod: 1
  statsMod:
    HP: 0
    maxHP: 0
    attackRange: 0
    damageRange:
      min: 0
      max: 0
    accuracy: 0
    dodge: 12
    critChance: 0
    critMod: 0
    defence: 0
    actionPoints: 0
    moveSpeed: 0
    visionRange: 0
  blocks: []
  classChange: 
  setImage: {fileID: 21300000, guid: c7fa57879a1320b4993f9fc5f505de7f, type: 3}
  setDescription: +12 Dodge
