%YAML 1.1
%TAG !u! tag:unity3d.com,2011:
--- !u!114 &11400000
MonoBehaviour:
  m_ObjectHideFlags: 0
  m_PrefabParentObject: {fileID: 0}
  m_PrefabInternal: {fileID: 0}
  m_GameObject: {fileID: 0}
  m_Enabled: 1
  m_EditorHideFlags: 0
  m_Script: {fileID: 11500000, guid: fdfaba2ce3f2c51438c2ef57f904b3e3, type: 3}
  m_Name: Basic Attack
  m_EditorClassIdentifier: 
  damageMod: 0
  damage: 0
  abilityType: 1
  accuracy: 0
  critChance: 0
  critMod: 1
  hitEffects: []
  makeTargetCaster: 0
  hasCharges: 0
  charges: 0
  statusEffects:
  - {fileID: 11400000, guid: ae54b54c386e934469fcd716ed8722d9, type: 2}
  apCost: 2
  coolDown: 0
  coolDownCounter: 0
  targets: 0
  range:
    min: 2
    max: 3
  requireLOS: 0
  hexTarget: {fileID: 0}
  areaOfEffect: 1
  clickLayer:
    serializedVersion: 2
    m_Bits: 2048
  aoeSize: 3
  bounces: 3
  bounceDelay: 0.3
  bouncing: 0
  canReHit: 1
  bounceRange: 100
  projectilePrefab: {fileID: 1931586494333682, guid: 0f51f2fbfdcc3af40a4992a38d212b37,
    type: 2}
  projectileSpeed: 10
  projectileCount: 0
  abilityColor: 0
  particles: {fileID: 198390649763471790, guid: ac5c8d1cd566b0f489181208628025a7,
    type: 2}
  particlePosition: {x: 0, y: 1, z: 0}
  icon: {fileID: 21300000, guid: dfee2433963fe554b904bf2ecad3ca07, type: 3}
  castSound: {fileID: 0}
  hitSound: {fileID: 0}
  description: 
