%YAML 1.1
%TAG !u! tag:unity3d.com,2011:
--- !u!114 &11400000
MonoBehaviour:
  m_ObjectHideFlags: 0
  m_PrefabParentObject: {fileID: 0}
  m_PrefabInternal: {fileID: 0}
  m_GameObject: {fileID: 0}
  m_Enabled: 1
  m_EditorHideFlags: 0
  m_Script: {fileID: 11500000, guid: 70cb50ac84e9abc4c8e77eb4c9dc6a63, type: 3}
  m_Name: ObstacleAbility
  m_EditorClassIdentifier: 
  damageMod: 0
  damage: 1
  abilityType: 0
  accuracy: 0
  critChance: 0
  critMod: 1
  hitEffects: []
  makeTargetCaster: 0
  hasCharges: 0
  charges: 0
  maxCharges: 0
  statusEffects: []
  apCost: 0
  coolDown: 0
  coolDownCounter: 0
  targets: 1
  range:
    min: 0
    max: 1
  requireLOS: 1
  areaOfEffect: 0
  clickLayer:
    serializedVersion: 2
    m_Bits: 2048
  aoeSize: 0
  bounces: 0
  bounceDelay: 0.3
  bouncing: 0
  canReHit: 0
  bounceRange: 0
  projectilePrefab: {fileID: 0}
  projectileSpeed: 10
  projectileCount: 0
  shakeOnHit: 0
  shakeAmount: 0.25
  shakeDuration: 0.2
  abilityColor: 0
  particles: {fileID: 0}
  particlePosition: {x: 0, y: 1, z: 0}
  icon: {fileID: 0}
  castSound: {fileID: 0}
  hitSound: {fileID: 0}
  description: 
  attackOrigin: {x: 0, y: 0, z: 0}
  obstacleObject: {fileID: 0}
  duration: 0
  canTargetTileWithUnit: 0
  noPushBack: 0
