%YAML 1.1
%TAG !u! tag:unity3d.com,2011:
--- !u!114 &11400000
MonoBehaviour:
  m_ObjectHideFlags: 0
  m_PrefabParentObject: {fileID: 0}
  m_PrefabInternal: {fileID: 0}
  m_GameObject: {fileID: 0}
  m_Enabled: 1
  m_EditorHideFlags: 0
  m_Script: {fileID: 11500000, guid: 644ac2ac753292f4c8508867e858acc5, type: 3}
  m_Name: SkillTree
  m_EditorClassIdentifier: 
  sets:
  - {fileID: 0}
  - {fileID: 0}
  setsLearnt: []
  setsBlocked: []
