%YAML 1.1
%TAG !u! tag:unity3d.com,2011:
--- !u!114 &11400000
MonoBehaviour:
  m_ObjectHideFlags: 0
  m_PrefabParentObject: {fileID: 0}
  m_PrefabInternal: {fileID: 0}
  m_GameObject: {fileID: 0}
  m_Enabled: 1
  m_EditorHideFlags: 0
  m_Script: {fileID: 11500000, guid: 6896b51bb0a9fba419124f5364a20b77, type: 3}
  m_Name: StatusEffect
  m_EditorClassIdentifier: 
  effectMod: 0
  stats:
    HP: 0
    maxHP: 0
    attackRange: 0
    damageRange:
      min: 1000
      max: 1000
    accuracy: 0
    dodge: 0
    critChance: 0
    critMod: 0
    defence: 0
    actionPoints: 0
    moveSpeed: 0
    visionRange: 0
    currentExp: 0
    essenceValue: 0
    expValue: 0
    unitLevel: 0
    skillPoints: 0
  damageMod: 0
  damage: 1
  user: {fileID: 0}
  target: {fileID: 0}
  ability: {fileID: 0}
  icon: {fileID: 0}
  particle: {fileID: 0}
  description: 
