%YAML 1.1
%TAG !u! tag:unity3d.com,2011:
--- !u!114 &11400000
MonoBehaviour:
  m_ObjectHideFlags: 0
  m_PrefabParentObject: {fileID: 0}
  m_PrefabInternal: {fileID: 0}
  m_GameObject: {fileID: 0}
  m_Enabled: 1
  m_EditorHideFlags: 0
  m_Script: {fileID: 11500000, guid: a442fb840f96b6b49869add88dcbe58c, type: 3}
  m_Name: O Kill Big Spider
  m_EditorClassIdentifier: 
  completed: 0
  objectiveName: Kill Big Spider
  objectiveDescription: 
  showArrow: 1
  removeOnReveal: 1
  killAllRemaining: 0
  killRequirement: 1
  ID: 1
