%YAML 1.1
%TAG !u! tag:unity3d.com,2011:
--- !u!114 &11400000
MonoBehaviour:
  m_ObjectHideFlags: 0
  m_PrefabParentObject: {fileID: 0}
  m_PrefabInternal: {fileID: 0}
  m_GameObject: {fileID: 0}
  m_Enabled: 1
  m_EditorHideFlags: 0
  m_Script: {fileID: 11500000, guid: c5dc05e463901f24d9747c14b6b52229, type: 3}
  m_Name: Check Point
  m_EditorClassIdentifier: 
  completed: 0
  objectiveName: Check Point Reached
  objectiveDescription: 
  checkPoint: {fileID: 0}
