%YAML 1.1
%TAG !u! tag:unity3d.com,2011:
--- !u!114 &11400000
MonoBehaviour:
  m_ObjectHideFlags: 0
  m_PrefabParentObject: {fileID: 0}
  m_PrefabInternal: {fileID: 0}
  m_GameObject: {fileID: 0}
  m_Enabled: 1
  m_EditorHideFlags: 0
  m_Script: {fileID: 11500000, guid: 825abf5938b1943459ddb0cc3375654e, type: 3}
  m_Name: Emir Must Survive
  m_EditorClassIdentifier: 
  completed: 0
  objectiveName: Emir must survive
  objectiveDescription: 
  ID: 9
  failCondition: 1
  onFailTrigger: {fileID: 11400000, guid: 0ba7dd8fc6b5d6245a31604fe08bad98, type: 2}
